Chapter 4 Data Transformation 2: More One and Two Table Verbs | Introduction to R
…
library(tidyverse)
MMA_Data <- read_csv("CareerStats2.csv")

4.2 Practicing the Wikham Six

The first part of todays class will be practicing the Wickham Six some more, as was mentioned before, the vast majority of your "data time" will be wrangling your data, and most of that can be done with these six functions, so it's good to practice with them. First you'll see an example of each function to refresh your memory. Then you will be asked to try for yourself, these will be a little more involved than last week to really test you. If you are stuggling you can check the solutions, but try yourself first, and answer the questions too, this will help you check your code is correct.

4.2.1 select()

First up lets try to narrow down this big data set, by taking MMA_Data, and selecting only the variables; ID, Height, Weight, BMI, Reach and Stance. We will store this in Example_1.

Example_1 <- select(MMA_Data, ID, Height, Weight:Reach, Stance)
Example_1

## # A tibble: 199 x 6
##    ID               Height Weight   BMI Reach Stance  
##    <chr>             <dbl>  <dbl> <dbl> <dbl> <chr>   
##  1 056c493bbd76a918     64    125  21.5    64 Orthodox
##  2 b102c26727306ab6     65    125  20.8    67 Orthodox
##  3 80eacd4da0617c57     64    125  21.5    65 Southpaw
##  4 a4de54ea806fb525     64    125  21.5    63 Orthodox
##  5 aa72b0f831d0bfe5     65    125  20.8    68 Orthodox
##  6 92437c6775b3f7d1     66    125  20.2    66 Orthodox
##  7 5aedf14771ca82d2     64    125  21.5    65 Southpaw
##  8 a0f0004aadf10b71     65    125  20.8    67 Orthodox
##  9 f53c1f4ceeed8c08     65    125  20.8    65 Orthodox
## 10 ab2b4ff41d6ebe0f     66    125  20.2    65 Orthodox
## # ... with 189 more rows
…
Solution

# Jaimie's solutions
Q1 <- select(Example_1, -Reach)
#OR
Q1 <- select(Example_1, ID, Height, Weight, BMI, Stance)

4.2.2 arrange()

Lets move on to arrange(); lets take the table Example_1, and arrange it first by Weight, then by BMI, we'll store this in Example_2.

Example_2 <- arrange(Example_1, Weight, BMI)
Example_2

## # A tibble: 199 x 6
##    ID               Height Weight   BMI Reach Stance  
##    <chr>             <dbl>  <dbl> <dbl> <dbl> <chr>   
##  1 199eb7cf6ae90294     69    125  18.5    71 Orthodox
##  2 0fd5f4b838e890cc     68    125  19.0    70 Orthodox
##  3 67c1d46f4ed16f9e     68    125  19.0    70 Orthodox
##  4 792be9a24df82ed6     67    125  19.6    70 Orthodox
##  5 92437c6775b3f7d1     66    125  20.2    66 Orthodox
##  6 ab2b4ff41d6ebe0f     66    125  20.2    65 Orthodox
##  7 a0c64f272b65d441     66    125  20.2    68 Orthodox
##  8 1a31ef98efce7a79     66    125  20.2    66 Switch  
##  9 2fe9032955c2e013     66    125  20.2    69 Switch  
## 10 b102c26727306ab6     65    125  20.8    67 Orthodox
## # ... with 189 more rows
…
Solution

# Jaimie's solution
Q2 <- arrange(Example_1, desc(Reach), desc(Height))

What is the BMI of the top entry in Q2? 

4.2.3 filter()

Now onto filter() which has so many uses! Lets filter out all the athletes who are over 31 years of age

Example_3 <- filter(MMA_Data, Age <=31)
Example_3

## # A tibble: 97 x 32
##    ID      Age Height HeightClass Weight   BMI Reach ReachClass Stance
##    <chr> <dbl>  <dbl> <chr>        <dbl> <dbl> <dbl> <chr>      <chr> 
##  1 a4de~  25.4     64 Short          125  21.5    63 Below      Ortho~
##  2 a0f0~  28.7     65 Short          125  20.8    67 Below      Ortho~
##  3 f53c~  30       65 Short          125  20.8    65 Below      Ortho~
##  4 ab2b~  26.8     66 Average        125  20.2    65 Below      Ortho~
##  5 87f1~  30.4     65 Short          125  20.8    65 Below      Ortho~
##  6 0fd5~  26.7     68 Average        125  19.0    70 Below      Ortho~
##  7 2099~  29.3     65 Short          125  20.8    68 Below      Ortho~
##  8 a0c6~  27.9     66 Average        125  20.2    68 Below      Ortho~
##  9 67c1~  29.0     68 Average        125  19.0    70 Below      Ortho~
## 10 792b~  25.0     67 Average        125  19.6    70 Below      Ortho~
## # ... with 87 more rows, and 23 more variables: WeightClass <chr>,
## #   T_Wins <dbl>, T_Losses <dbl>, T_Fights <dbl>, Success <dbl>,
## #   W_by_Decision <dbl>, `W_by_KO/TKO` <dbl>, W_by_Sub <dbl>,
## #   L_by_Decision <dbl>, `L_by_KO/TKO` <dbl>, L_by_Sub <dbl>, PWDec <dbl>,
## #   PWTko <dbl>, PWSub <dbl>, PLDec <dbl>, PLTko <dbl>, PLSub <dbl>,
## #   Available <dbl>, TTime <dbl>, Time_Avg <dbl>, TLpM <dbl>, AbpM <dbl>,
## #   SubAtt_Avg <dbl>
…
Hopefully now you can understand the difference.

How many athletes (observations) are left in Q5? 

4.2.4 mutate()

Moving on to mutate() now.

Lets add a new column onto the table Example_1, that shows Reach but in meters rather than inches, and we'll call it ReachM. We can make this column with mutate() by converting the inches value in the original Reach column into centimeters, by multiplying (*) the value by 2.54 and then dividing (/) the result by 100.

Example_4 <- mutate(Example_1, ReachM = (Reach*2.54)/100)
Example_4

## # A tibble: 199 x 7
##    ID               Height Weight   BMI Reach Stance   ReachM
##    <chr>             <dbl>  <dbl> <dbl> <dbl> <chr>     <dbl>
##  1 056c493bbd76a918     64    125  21.5    64 Orthodox   1.63
##  2 b102c26727306ab6     65    125  20.8    67 Orthodox   1.70
##  3 80eacd4da0617c57     64    125  21.5    65 Southpaw   1.65
##  4 a4de54ea806fb525     64    125  21.5    63 Orthodox   1.60
##  5 aa72b0f831d0bfe5     65    125  20.8    68 Orthodox   1.73
##  6 92437c6775b3f7d1     66    125  20.2    66 Orthodox   1.68
##  7 5aedf14771ca82d2     64    125  21.5    65 Southpaw   1.65
##  8 a0f0004aadf10b71     65    125  20.8    67 Orthodox   1.70
##  9 f53c1f4ceeed8c08     65    125  20.8    65 Orthodox   1.65
## 10 ab2b4ff41d6ebe0f     66    125  20.2    65 Orthodox   1.65
## # ... with 189 more rows
…
To make things nice and clear to see, lets simplify our data a litte.

Summer_Rain <- wos_seasonal_rain %>% 
  select(year, sum)

Summer_Sun <- wos_seasonal_sun %>% 
  select(year, sum)

Summer_Rain

## # A tibble: 154 x 2
##     year   sum
##    <dbl> <dbl>
##  1  1862  426.
##  2  1863  299.
##  3  1864  255.
##  4  1865  274.
##  5  1866  345.
##  6  1867  340.
##  7  1868  295.
##  8  1869  183.
##  9  1870  205.
## 10  1871  349.
## # ... with 144 more rows

Summer_Sun

## # A tibble: 102 x 2
##     year   sum
##    <dbl> <dbl>
##  1  1919  524.
##  2  1920  411.
##  3  1921  509 
##  4  1922  385.
##  5  1923  327.
##  6  1924  329.
##  7  1925  529.
##  8  1926  512.
##  9  1927  446 
## 10  1928  408.
## # ... with 92 more rows
…
Here we merge Summer_Sun and Summer_Rain with inner_join() specifying we want to "join by" the variable year. Becuase the remaining variable has the same name in both tables, R needs to distiguish them from each other, for that we use the suffix = arguement, which allows us to specify what suffix to add to each column of the resulting table. If we do not spcify this, R will add a .x and .y suffix for us to the x (left) and y (right) table variables respectively.

inner <- inner_join(Summer_Sun, Summer_Rain, by="year", suffix = c("_sun", "_rain"))
inner

## # A tibble: 97 x 3
##     year sum_sun sum_rain
##    <dbl>   <dbl>    <dbl>
##  1  1919    524.     298 
##  2  1920    411.     358.
##  3  1921    509      354.
##  4  1922    385.     334.
##  5  1923    327.     444.
##  6  1924    329.     395.
##  7  1925    529.     228.
##  8  1926    512.     367 
##  9  1927    446      433.
## 10  1928    408.     440.
## # ... with 87 more rows
…
Let's try this left_join() function for our simple example of Summer_Sun and Summer_Rain in R.

left <- left_join(Summer_Sun, Summer_Rain, by="year", suffix = c("_sun", "_rain"))
left

## # A tibble: 102 x 3
##     year sum_sun sum_rain
##    <dbl>   <dbl>    <dbl>
##  1  1919    524.     298 
##  2  1920    411.     358.
##  3  1921    509      354.
##  4  1922    385.     334.
##  5  1923    327.     444.
##  6  1924    329.     395.
##  7  1925    529.     228.
##  8  1926    512.     367 
##  9  1927    446      433.
## 10  1928    408.     440.
## # ... with 92 more rows
…
However, code-wise, you would still enter x as the first, and y as the second argument within right_join().

right <- right_join(Summer_Sun, Summer_Rain, by="year", suffix = c("_sun", "_rain"))
right

## # A tibble: 154 x 3
##     year sum_sun sum_rain
##    <dbl>   <dbl>    <dbl>
##  1  1919    524.     298 
##  2  1920    411.     358.
##  3  1921    509      354.
##  4  1922    385.     334.
##  5  1923    327.     444.
##  6  1924    329.     395.
##  7  1925    529.     228.
##  8  1926    512.     367 
##  9  1927    446      433.
## 10  1928    408.     440.
## # ... with 144 more rows
…
full <- full_join(Summer_Sun, Summer_Rain, by="year", suffix = c("_sun", "_rain"))
full

## # A tibble: 159 x 3
##     year sum_sun sum_rain
##    <dbl>   <dbl>    <dbl>
##  1  1919    524.     298 
##  2  1920    411.     358.
##  3  1921    509      354.
##  4  1922    385.     334.
##  5  1923    327.     444.
##  6  1924    329.     395.
##  7  1925    529.     228.
##  8  1926    512.     367 
##  9  1927    446      433.
## 10  1928    408.     440.
## # ... with 149 more rows
…
Your turn

Join together wos_seasonal_rain and wos_seasonal_sun so that we keep all the rows from the wos_seasonal_sun table, add a useful suffix so you can differentiate between columns with the same name. Store the result in Q10.

Solution

#Jaimie's solution
Q10 <- left_join(wos_seasonal_sun, wos_seasonal_rain, by = "year", suffix = c("_sun", "_rain"))
#OR 
Q10 <- right_join(wos_seasonal_rain, wos_seasonal_sun, by = "year", suffix = c("_rain", "_sun"))

Q10

## # A tibble: 102 x 9
##     year win_rain spr_rain sum_rain aut_rain win_sun spr_sun sum_sun aut_sun
##    <dbl>    <dbl>    <dbl>    <dbl>    <dbl>   <dbl>   <dbl>   <dbl>   <dbl>
##  1  1919     389.     260.     298      339.    NA      414.    524.    257.
##  2  1920     704.     428.     358.     374.   111.     328.    411.    219.
##  3  1921     489.     390.     354.     340.   104.     404.    509     222.
##  4  1922     620      309.     334.     290.   102.     457.    385.    252.
##  5  1923     531.     266.     444.     649.    77.2    430.    327.    245.
##  6  1924     406.     262.     395.     447.   117.     356     329.    221.
##  7  1925     575.     462.     228.     329.    87.5    353.    529.    252.
##  8  1926     547.     308.     367      547.    91.1    366.    512.    241.
##  9  1927     445.     345.     433.     574.   104.     423.    446     240.
## 10  1928     567.     272.     440.     612.   131.     384.    408.    253.
## # ... with 92 more rows
…
Sun_Season_1 <- wos_seasonal_sun %>%
  filter(year >= 1970)

Sun_Season_2 <- wos_seasonal_sun %>%
  filter(year < 1970)

Now we have 2 indetical tables for seasonal sunshine in the west of Scotland, but for different sets of years. All the same variables, but totally different observations.

We can easily join these together with bind_rows to create a complete history.

Bind_1 <- bind_rows(Sun_Season_1, Sun_Season_2)
Bind_1

## # A tibble: 102 x 5
##     year   win   spr   sum   aut
##    <dbl> <dbl> <dbl> <dbl> <dbl>
##  1  1970  158.  385.  474.  202.
##  2  1971  115.  424.  475.  269 
##  3  1972  113.  380.  480.  282.
##  4  1973  116.  418.  444.  250 
##  5  1974  110.  471.  480.  244 
##  6  1975  130.  517.  561.  218.
##  7  1976  110.  343.  588.  213 
##  8  1977  156.  431.  599.  226.
##  9  1978  159.  394.  412.  192.
## 10  1979  155.  383.  403.  223.
## # ... with 92 more rows

bind_rows() takes the second table Sun_Season_2 and puts it directly underneath the first table Sun_Season_1.

What happens if we attempt to bind tables with different dimensions

Bind_2 <- bind_rows(Sun_Season_1, inner)
Bind_2

## # A tibble: 148 x 7
##     year   win   spr   sum   aut sum_sun sum_rain
##    <dbl> <dbl> <dbl> <dbl> <dbl>   <dbl>    <dbl>
##  1  1970  158.  385.  474.  202.      NA       NA
##  2  1971  115.  424.  475.  269       NA       NA
##  3  1972  113.  380.  480.  282.      NA       NA
##  4  1973  116.  418.  444.  250       NA       NA
##  5  1974  110.  471.  480.  244       NA       NA
##  6  1975  130.  517.  561.  218.      NA       NA
##  7  1976  110.  343.  588.  213       NA       NA
##  8  1977  156.  431.  599.  226.      NA       NA
##  9  1978  159.  394.  412.  192.      NA       NA
## 10  1979  155.  383.  403.  223.      NA       NA
## # ... with 138 more rows
…
By the way, you can merge as many data objects as you like with the binding functions, whereas in the join functions, you are limited to two. However, you could use a pipe to combine the merged dataframe with a third.

example 1: bind_rows(data1, data2, data3) 
 example 2: full_join(data1, data2) %>% full_join(data3)

Just to further clarify the differences between bind_cols() and the mutating joing verbs, lets look at how they would deal with the same challenge

First lets create a new table for winter sun data, but lets arrange it by "win", so that rather than being in order of year, it is in order of most sunshine. This will have the same dimensions as the Summer_Sun table but a totally different order

Winter_Sun <- wos_seasonal_sun %>% 
  select(year, win) %>%
  arrange(desc(win))
Winter_Sun

## # A tibble: 102 x 2
##     year   win
##    <dbl> <dbl>
##  1  1963  204.
##  2  2018  170.
##  3  2003  169.
##  4  2001  166 
##  5  1965  165 
##  6  2004  163.
##  7  1978  159.
##  8  1968  159.
##  9  1970  158.
## 10  1996  156.
## # ... with 92 more rows

Now lets try joining Winter_Sun and Summer_Sun using the two different methods

Comparison_1 <- bind_cols(Summer_Sun, Winter_Sun)

## New names:
## * year -> year...1
## * year -> year...3

Comparison_2 <- left_join(Summer_Sun, Winter_Sun, "year")

Comparison_1

## # A tibble: 102 x 4
##    year...1   sum year...3   win
##       <dbl> <dbl>    <dbl> <dbl>
##  1     1919  524.     1963  204.
##  2     1920  411.     2018  170.
##  3     1921  509      2003  169.
##  4     1922  385.     2001  166 
##  5     1923  327.     1965  165 
##  6     1924  329.     2004  163.
##  7     1925  529.     1978  159.
##  8     1926  512.     1968  159.
##  9     1927  446      1970  158.
## 10     1928  408.     1996  156.
## # ... with 92 more rows

Comparison_2

## # A tibble: 102 x 3
##     year   sum   win
##    <dbl> <dbl> <dbl>
##  1  1919  524.  NA  
##  2  1920  411. 111. 
##  3  1921  509  104. 
##  4  1922  385. 102. 
##  5  1923  327.  77.2
##  6  1924  329. 117. 
##  7  1925  529.  87.5
##  8  1926  512.  91.1
##  9  1927  446  104. 
## 10  1928  408. 131. 
## # ... with 92 more rows
…
